<?xml version="1.0" encoding="utf-8"?>
<!-- Generator: Adobe Illustrator 19.0.1, SVG Export Plug-In . SVG Version: 6.00 Build 0)  -->
<svg version="1.1" id="Layer_1" xmlns="http://www.w3.org/2000/svg" xmlns:xlink="http://www.w3.org/1999/xlink" x="0px" y="0px"
	 viewBox="415.3 19.2 64 64" style="enable-background:new 415.3 19.2 64 64;" xml:space="preserve">
<style type="text/css">
	.st0{fill:#1E4383;}
</style>
<path class="st0" d="M447.3,19.2c-17.7,0-32,14.3-32,32s14.3,32,32,32s32-14.3,32-32S465,19.2,447.3,19.2z M434.6,40.7h25.7
	c1.4,0,1.4,0.7,1.4,0.7L449,51.3c-0.4,0.4-0.8,0.5-1.6,0.5s-1.5-0.7-1.5-0.7l-12.5-9.9C433.8,40.8,434.6,40.7,434.6,40.7z M432.9,43
	l10.6,9.2l-10.6,7.9V43z M433.5,60.7l10.6-8c0,0,1.8,1.9,3.3,1.9c1.6,0,3.2-1.9,3.2-1.9l10.3,8H433.5z M462,60.1l-10.7-7.7l10.7-9
	V60.1z"/>
</svg>
